# MagicaVoxel @ Ephtracy

# group
o 

# material
mtllib Bullet.mtl
usemtl palette

# normals
vn -1 0 0
vn 1 0 0
vn 0 0 1
vn 0 0 -1
vn 0 -1 0
vn 0 1 0

# texcoords
vt 0.0449219 0.5
vt 0.158203 0.5
vt 0.162109 0.5
vt 0.181641 0.5
vt 0.962891 0.5

# verts
v -0.2 -0.2 -0.3
v -0.2 -0.2 -0.4
v -0.2 -0.1 0.3
v -0.2 -0.1 0
v -0.2 -0.1 -0.1
v -0.2 -0.1 -0.3
v -0.2 0.1 0.3
v -0.2 0.1 0
v -0.2 0.1 -0.1
v -0.2 0.1 -0.3
v -0.2 0.2 -0.3
v -0.2 0.2 -0.4
v -0.1 -0.2 0.3
v -0.1 -0.2 0
v -0.1 -0.2 -0.1
v -0.1 -0.2 -0.3
v -0.1 -0.1 0.4
v -0.1 -0.1 0.3
v -0.1 -0.1 0
v -0.1 -0.1 -0.1
v -0.1 -0.1 -0.3
v -0.1 0.1 0.4
v -0.1 0.1 0.3
v -0.1 0.1 0
v -0.1 0.1 -0.1
v -0.1 0.1 -0.3
v -0.1 0.2 0.3
v -0.1 0.2 0
v -0.1 0.2 -0.1
v -0.1 0.2 -0.3
v 0.1 -0.1 -0.3
v 0.1 -0.1 -0.4
v 0.1 0.1 -0.3
v 0.1 0.1 -0.4
v -0.1 -0.1 -0.3
v -0.1 -0.1 -0.4
v -0.1 0.1 -0.3
v -0.1 0.1 -0.4
v 0.1 -0.2 0.3
v 0.1 -0.2 0
v 0.1 -0.2 -0.1
v 0.1 -0.2 -0.3
v 0.1 -0.1 0.4
v 0.1 -0.1 0.3
v 0.1 -0.1 0
v 0.1 -0.1 -0.1
v 0.1 -0.1 -0.3
v 0.1 0.1 0.4
v 0.1 0.1 0.3
v 0.1 0.1 0
v 0.1 0.1 -0.1
v 0.1 0.1 -0.3
v 0.1 0.2 0.3
v 0.1 0.2 0
v 0.1 0.2 -0.1
v 0.1 0.2 -0.3
v 0.2 -0.2 -0.3
v 0.2 -0.2 -0.4
v 0.2 -0.1 0.3
v 0.2 -0.1 0
v 0.2 -0.1 -0.1
v 0.2 -0.1 -0.3
v 0.2 0.1 0.3
v 0.2 0.1 0
v 0.2 0.1 -0.1
v 0.2 0.1 -0.3
v 0.2 0.2 -0.3
v 0.2 0.2 -0.4
v -0.1 -0.1 0.4
v -0.1 0.1 0.4
v 0.1 -0.1 0.4
v 0.1 0.1 0.4
v -0.2 -0.1 0.3
v -0.2 0.1 0.3
v -0.1 -0.2 0.3
v -0.1 -0.1 0.3
v -0.1 0.1 0.3
v -0.1 0.2 0.3
v 0.1 -0.2 0.3
v 0.1 -0.1 0.3
v 0.1 0.1 0.3
v 0.1 0.2 0.3
v 0.2 -0.1 0.3
v 0.2 0.1 0.3
v -0.2 -0.1 -0.1
v -0.2 0.1 -0.1
v -0.1 -0.2 -0.1
v -0.1 -0.1 -0.1
v -0.1 0.1 -0.1
v -0.1 0.2 -0.1
v 0.1 -0.2 -0.1
v 0.1 -0.1 -0.1
v 0.1 0.1 -0.1
v 0.1 0.2 -0.1
v 0.2 -0.1 -0.1
v 0.2 0.1 -0.1
v -0.2 -0.2 -0.3
v -0.2 -0.1 -0.3
v -0.2 0.1 -0.3
v -0.2 0.2 -0.3
v -0.1 -0.2 -0.3
v -0.1 -0.1 -0.3
v -0.1 0.1 -0.3
v -0.1 0.2 -0.3
v 0.1 -0.2 -0.3
v 0.1 -0.1 -0.3
v 0.1 0.1 -0.3
v 0.1 0.2 -0.3
v 0.2 -0.2 -0.3
v 0.2 -0.1 -0.3
v 0.2 0.1 -0.3
v 0.2 0.2 -0.3
v -0.2 -0.1 0
v -0.2 0.1 0
v -0.1 -0.2 0
v -0.1 -0.1 0
v -0.1 0.1 0
v -0.1 0.2 0
v 0.1 -0.2 0
v 0.1 -0.1 0
v 0.1 0.1 0
v 0.1 0.2 0
v 0.2 -0.1 0
v 0.2 0.1 0
v -0.1 -0.1 -0.3
v -0.1 0.1 -0.3
v 0.1 -0.1 -0.3
v 0.1 0.1 -0.3
v -0.2 -0.2 -0.4
v -0.2 0.2 -0.4
v -0.1 -0.1 -0.4
v -0.1 0.1 -0.4
v 0.1 -0.1 -0.4
v 0.1 0.1 -0.4
v 0.2 -0.2 -0.4
v 0.2 0.2 -0.4
v -0.1 -0.2 0.3
v 0.1 -0.2 0.3
v -0.1 -0.2 0
v 0.1 -0.2 0
v -0.1 -0.2 -0.1
v 0.1 -0.2 -0.1
v -0.2 -0.2 -0.3
v -0.1 -0.2 -0.3
v 0.1 -0.2 -0.3
v 0.2 -0.2 -0.3
v -0.2 -0.2 -0.4
v 0.2 -0.2 -0.4
v -0.1 -0.1 0.4
v 0.1 -0.1 0.4
v -0.2 -0.1 0.3
v -0.1 -0.1 0.3
v 0.1 -0.1 0.3
v 0.2 -0.1 0.3
v -0.2 -0.1 0
v -0.1 -0.1 0
v 0.1 -0.1 0
v 0.2 -0.1 0
v -0.2 -0.1 -0.1
v -0.1 -0.1 -0.1
v 0.1 -0.1 -0.1
v 0.2 -0.1 -0.1
v -0.2 -0.1 -0.3
v -0.1 -0.1 -0.3
v 0.1 -0.1 -0.3
v 0.2 -0.1 -0.3
v -0.1 0.1 -0.3
v 0.1 0.1 -0.3
v -0.1 0.1 -0.4
v 0.1 0.1 -0.4
v -0.1 -0.1 -0.3
v 0.1 -0.1 -0.3
v -0.1 -0.1 -0.4
v 0.1 -0.1 -0.4
v -0.1 0.1 0.4
v 0.1 0.1 0.4
v -0.2 0.1 0.3
v -0.1 0.1 0.3
v 0.1 0.1 0.3
v 0.2 0.1 0.3
v -0.2 0.1 0
v -0.1 0.1 0
v 0.1 0.1 0
v 0.2 0.1 0
v -0.2 0.1 -0.1
v -0.1 0.1 -0.1
v 0.1 0.1 -0.1
v 0.2 0.1 -0.1
v -0.2 0.1 -0.3
v -0.1 0.1 -0.3
v 0.1 0.1 -0.3
v 0.2 0.1 -0.3
v -0.1 0.2 0.3
v 0.1 0.2 0.3
v -0.1 0.2 0
v 0.1 0.2 0
v -0.1 0.2 -0.1
v 0.1 0.2 -0.1
v -0.2 0.2 -0.3
v -0.1 0.2 -0.3
v 0.1 0.2 -0.3
v 0.2 0.2 -0.3
v -0.2 0.2 -0.4
v 0.2 0.2 -0.4

# faces
f 6/2/1 2/2/1 1/2/1
f 7/1/1 4/1/1 3/1/1
f 8/1/1 4/1/1 7/1/1
f 9/2/1 6/2/1 5/2/1
f 10/2/1 2/2/1 6/2/1
f 10/2/1 6/2/1 9/2/1
f 11/2/1 2/2/1 10/2/1
f 12/2/1 2/2/1 11/2/1
f 18/1/1 14/1/1 13/1/1
f 19/1/1 14/1/1 18/1/1
f 20/2/1 16/2/1 15/2/1
f 21/2/1 16/2/1 20/2/1
f 22/1/1 18/1/1 17/1/1
f 23/1/1 18/1/1 22/1/1
f 24/4/1 20/4/1 19/4/1
f 25/4/1 20/4/1 24/4/1
f 27/1/1 24/1/1 23/1/1
f 28/1/1 24/1/1 27/1/1
f 29/2/1 26/2/1 25/2/1
f 30/2/1 26/2/1 29/2/1
f 33/2/1 32/2/1 31/2/1
f 34/2/1 32/2/1 33/2/1
f 35/2/2 36/2/2 37/2/2
f 37/2/2 36/2/2 38/2/2
f 39/1/2 40/1/2 44/1/2
f 44/1/2 40/1/2 45/1/2
f 41/2/2 42/2/2 46/2/2
f 46/2/2 42/2/2 47/2/2
f 43/1/2 44/1/2 48/1/2
f 48/1/2 44/1/2 49/1/2
f 45/4/2 46/4/2 50/4/2
f 50/4/2 46/4/2 51/4/2
f 49/1/2 50/1/2 53/1/2
f 53/1/2 50/1/2 54/1/2
f 51/2/2 52/2/2 55/2/2
f 55/2/2 52/2/2 56/2/2
f 57/2/2 58/2/2 62/2/2
f 59/1/2 60/1/2 63/1/2
f 63/1/2 60/1/2 64/1/2
f 61/2/2 62/2/2 65/2/2
f 62/2/2 58/2/2 66/2/2
f 65/2/2 62/2/2 66/2/2
f 66/2/2 58/2/2 67/2/2
f 67/2/2 58/2/2 68/2/2
f 71/1/3 70/1/3 69/1/3
f 72/1/3 70/1/3 71/1/3
f 76/1/3 74/1/3 73/1/3
f 77/1/3 74/1/3 76/1/3
f 79/1/3 76/1/3 75/1/3
f 80/1/3 76/1/3 79/1/3
f 81/1/3 78/1/3 77/1/3
f 82/1/3 78/1/3 81/1/3
f 83/1/3 81/1/3 80/1/3
f 84/1/3 81/1/3 83/1/3
f 88/2/3 86/2/3 85/2/3
f 89/2/3 86/2/3 88/2/3
f 91/2/3 88/2/3 87/2/3
f 92/2/3 88/2/3 91/2/3
f 93/2/3 90/2/3 89/2/3
f 94/2/3 90/2/3 93/2/3
f 95/2/3 93/2/3 92/2/3
f 96/2/3 93/2/3 95/2/3
f 101/2/3 98/2/3 97/2/3
f 102/2/3 98/2/3 101/2/3
f 103/2/3 100/2/3 99/2/3
f 104/2/3 100/2/3 103/2/3
f 109/2/3 106/2/3 105/2/3
f 110/2/3 106/2/3 109/2/3
f 111/2/3 108/2/3 107/2/3
f 112/2/3 108/2/3 111/2/3
f 113/1/4 114/1/4 116/1/4
f 116/1/4 114/1/4 117/1/4
f 115/1/4 116/1/4 119/1/4
f 119/1/4 116/1/4 120/1/4
f 117/1/4 118/1/4 121/1/4
f 121/1/4 118/1/4 122/1/4
f 120/1/4 121/1/4 123/1/4
f 123/1/4 121/1/4 124/1/4
f 125/3/4 126/3/4 127/3/4
f 127/3/4 126/3/4 128/3/4
f 129/2/4 130/2/4 131/2/4
f 131/2/4 130/2/4 132/2/4
f 129/2/4 131/2/4 133/2/4
f 132/2/4 130/2/4 134/2/4
f 129/2/4 133/2/4 135/2/4
f 133/2/4 134/2/4 135/2/4
f 134/2/4 130/2/4 136/2/4
f 135/2/4 134/2/4 136/2/4
f 139/1/5 138/1/5 137/1/5
f 140/1/5 138/1/5 139/1/5
f 144/2/5 142/2/5 141/2/5
f 145/2/5 142/2/5 144/2/5
f 147/2/5 145/2/5 144/2/5
f 147/2/5 146/2/5 145/2/5
f 147/2/5 144/2/5 143/2/5
f 148/2/5 146/2/5 147/2/5
f 152/1/5 150/1/5 149/1/5
f 153/1/5 150/1/5 152/1/5
f 155/1/5 152/1/5 151/1/5
f 156/1/5 152/1/5 155/1/5
f 157/1/5 154/1/5 153/1/5
f 158/1/5 154/1/5 157/1/5
f 160/4/5 157/4/5 156/4/5
f 161/4/5 157/4/5 160/4/5
f 163/2/5 160/2/5 159/2/5
f 164/2/5 160/2/5 163/2/5
f 165/2/5 162/2/5 161/2/5
f 166/2/5 162/2/5 165/2/5
f 169/2/5 168/2/5 167/2/5
f 170/2/5 168/2/5 169/2/5
f 171/2/6 172/2/6 173/2/6
f 173/2/6 172/2/6 174/2/6
f 175/1/6 176/1/6 178/1/6
f 178/1/6 176/1/6 179/1/6
f 177/1/6 178/1/6 181/1/6
f 181/1/6 178/1/6 182/1/6
f 179/1/6 180/1/6 183/1/6
f 183/1/6 180/1/6 184/1/6
f 182/4/6 183/4/6 186/4/6
f 186/4/6 183/4/6 187/4/6
f 185/2/6 186/2/6 189/2/6
f 189/2/6 186/2/6 190/2/6
f 187/2/6 188/2/6 191/2/6
f 191/2/6 188/2/6 192/2/6
f 193/1/6 194/1/6 195/1/6
f 195/1/6 194/1/6 196/1/6
f 197/2/6 198/2/6 200/2/6
f 200/2/6 198/2/6 201/2/6
f 200/2/6 201/2/6 203/2/6
f 201/2/6 202/2/6 203/2/6
f 199/2/6 200/2/6 203/2/6
f 203/2/6 202/2/6 204/2/6
