# MagicaVoxel @ Ephtracy

# group
o 

# material
mtllib Snowman.mtl
usemtl palette

# normals
vn 0 0 1
vn 0 0 -1
vn 1 0 0
vn -1 0 0
vn 0 1 0
vn 0 -1 0

# texcoords
vt 0.232422 0.5
vt 0.396484 0.5
vt 0.958984 0.5
vt 0.966797 0.5
vt 0.986328 0.5
vt 0.994141 0.5

# verts
v -0.1 0 0.6
v -0.9 0 0.6
v -0.1 -0.8 0.6
v -0.9 -0.8 0.6
v -0.2 1.1 0.5
v -0.8 1.1 0.5
v -0.2 1 0.5
v -0.8 1 0.5
v -0.4 0.8 0.5
v -0.6 0.8 0.5
v -0.4 0.7 0.5
v -0.6 0.7 0.5
v -0.2 0.6 0.5
v -0.8 0.6 0.5
v -0.4 0.5 0.5
v -0.6 0.5 0.5
v -0.4 0.4 0.5
v -0.6 0.4 0.5
v -0.4 0.3 0.5
v -0.6 0.3 0.5
v -0.4 0.2 0.5
v -0.6 0.2 0.5
v -0.4 0.1 0.5
v -0.6 0.1 0.5
v -0.2 0 0.5
v -0.4 0 0.5
v -0.6 0 0.5
v -0.8 0 0.5
v -0.3 1.5 0.4
v -0.7 1.5 0.4
v -0.3 1.1 0.4
v -0.7 1.1 0.4
v -0.3 1 0.4
v -0.7 1 0.4
v -0.3 0.9 0.4
v -0.4 0.9 0.4
v -0.6 0.9 0.4
v -0.7 0.9 0.4
v -0.3 0.8 0.4
v -0.4 0.8 0.4
v -0.6 0.8 0.4
v -0.7 0.8 0.4
v -0.4 0.7 0.4
v -0.6 0.7 0.4
v -0.3 0.6 0.4
v -0.4 0.6 0.4
v -0.6 0.6 0.4
v -0.7 0.6 0.4
v 0.5 1.2 0.3
v 0.4 1.2 0.3
v 0.3 1.2 0.3
v 0.2 1.2 0.3
v 0.1 1.2 0.3
v 0 1.2 0.3
v 0.4 1 0.3
v 0.3 1 0.3
v 0.2 1 0.3
v 0.1 1 0.3
v -1.2 1 0.3
v -1.3 1 0.3
v 0.5 0.9 0.3
v 0.3 0.9 0.3
v 0.2 0.9 0.3
v 0 0.9 0.3
v -1.2 0.8 0.3
v -1.3 0.8 0.3
v 0.2 0.4 0.3
v -0.2 0.4 0.3
v -0.8 0.4 0.3
v -1.2 0.4 0.3
v 0.2 0.3 0.3
v -0.2 0.3 0.3
v -0.8 0.3 0.3
v -1.2 0.3 0.3
v 0.3 -0.2 0.3
v 0.2 -0.2 0.3
v 0.3 -0.4 0.3
v 0.2 -0.4 0.3
v -1.1 -0.4 0.3
v -1.2 -0.4 0.3
v -1.3 -0.4 0.3
v -1.4 -0.4 0.3
v -1.1 -0.8 0.3
v -1.4 -0.8 0.3
v 0.5 1.2 0.2
v 0.4 1.2 0.2
v 0.3 1.2 0.2
v 0.2 1.2 0.2
v 0.1 1.2 0.2
v 0 1.2 0.2
v 0.4 1 0.2
v 0.3 1 0.2
v 0.2 1 0.2
v 0.1 1 0.2
v -1.2 1 0.2
v -1.3 1 0.2
v 0.5 0.9 0.2
v 0.3 0.9 0.2
v 0.2 0.9 0.2
v 0 0.9 0.2
v -1.2 0.8 0.2
v -1.3 0.8 0.2
v 0.2 0.4 0.2
v -0.2 0.4 0.2
v -0.8 0.4 0.2
v -1.2 0.4 0.2
v 0.2 0.3 0.2
v -0.2 0.3 0.2
v -0.8 0.3 0.2
v -1.2 0.3 0.2
v 0.3 -0.2 0.2
v 0.2 -0.2 0.2
v 0.3 -0.4 0.2
v 0.2 -0.4 0.2
v -1.1 -0.4 0.2
v -1.2 -0.4 0.2
v -1.3 -0.4 0.2
v -1.4 -0.4 0.2
v -1.1 -0.8 0.2
v -1.4 -0.8 0.2
v -0.3 1.5 5.96046e-008
v -0.7 1.5 5.96046e-008
v -0.3 1.1 5.96046e-008
v -0.7 1.1 5.96046e-008
v -0.3 1 5.96046e-008
v -0.7 1 5.96046e-008
v -0.3 0.6 5.96046e-008
v -0.7 0.6 5.96046e-008
v -0.2 1.1 -0.1
v -0.8 1.1 -0.1
v -0.2 1 -0.1
v -0.8 1 -0.1
v -0.2 0.6 -0.1
v -0.8 0.6 -0.1
v -0.2 0 -0.1
v -0.8 0 -0.1
v -0.1 0 -0.2
v -0.9 0 -0.2
v -0.1 -0.8 -0.2
v -0.9 -0.8 -0.2
v 0.5 1.2 0.3
v 0.5 0.9 0.3
v 0.5 1.2 0.2
v 0.5 0.9 0.2
v 0.3 1.2 0.3
v 0.3 1 0.3
v 0.3 0.9 0.3
v 0.3 -0.2 0.3
v 0.3 -0.4 0.3
v 0.3 1.2 0.2
v 0.3 1 0.2
v 0.3 0.9 0.2
v 0.3 -0.2 0.2
v 0.3 -0.4 0.2
v 0.1 1.2 0.3
v 0.1 1 0.3
v 0.1 1.2 0.2
v 0.1 1 0.2
v -0.1 0 0.6
v -0.1 -0.8 0.6
v -0.1 0 -0.2
v -0.1 -0.8 -0.2
v -0.2 1.1 0.5
v -0.2 1 0.5
v -0.2 0.6 0.5
v -0.2 0 0.5
v -0.2 0.4 0.3
v -0.2 0.3 0.3
v -0.2 0.4 0.2
v -0.2 0.3 0.2
v -0.2 1.1 -0.1
v -0.2 1 -0.1
v -0.2 0.6 -0.1
v -0.2 0 -0.1
v -0.3 1.5 0.4
v -0.3 1.1 0.4
v -0.3 1 0.4
v -0.3 0.9 0.4
v -0.3 0.8 0.4
v -0.3 0.6 0.4
v -0.3 0.9 0.3
v -0.3 0.8 0.3
v -0.3 1.5 5.96046e-008
v -0.3 1.1 5.96046e-008
v -0.3 1 5.96046e-008
v -0.3 0.6 5.96046e-008
v -0.4 0.8 0.5
v -0.4 0.7 0.5
v -0.4 0.8 0.4
v -0.4 0.7 0.4
v -1.1 -0.4 0.3
v -1.1 -0.8 0.3
v -1.1 -0.4 0.2
v -1.1 -0.8 0.2
v -1.2 1 0.3
v -1.2 0.8 0.3
v -1.2 0.4 0.3
v -1.2 0.3 0.3
v -1.2 -0.4 0.3
v -1.2 1 0.2
v -1.2 0.8 0.2
v -1.2 0.4 0.2
v -1.2 0.3 0.2
v -1.2 -0.4 0.2
v 0.4 1.2 0.3
v 0.4 1 0.3
v 0.4 1.2 0.2
v 0.4 1 0.2
v 0.2 1.2 0.3
v 0.2 1 0.3
v 0.2 0.9 0.3
v 0.2 0.4 0.3
v 0.2 0.3 0.3
v 0.2 -0.2 0.3
v 0.2 -0.4 0.3
v 0.2 1.2 0.2
v 0.2 1 0.2
v 0.2 0.9 0.2
v 0.2 0.4 0.2
v 0.2 0.3 0.2
v 0.2 -0.2 0.2
v 0.2 -0.4 0.2
v 0 1.2 0.3
v 0 0.9 0.3
v 0 1.2 0.2
v 0 0.9 0.2
v -0.6 0.8 0.5
v -0.6 0.7 0.5
v -0.6 0.8 0.4
v -0.6 0.7 0.4
v -0.7 1.5 0.4
v -0.7 1.1 0.4
v -0.7 1 0.4
v -0.7 0.9 0.4
v -0.7 0.8 0.4
v -0.7 0.6 0.4
v -0.7 0.9 0.3
v -0.7 0.8 0.3
v -0.7 1.5 5.96046e-008
v -0.7 1.1 5.96046e-008
v -0.7 1 5.96046e-008
v -0.7 0.6 5.96046e-008
v -0.8 1.1 0.5
v -0.8 1 0.5
v -0.8 0.6 0.5
v -0.8 0 0.5
v -0.8 0.4 0.3
v -0.8 0.3 0.3
v -0.8 0.4 0.2
v -0.8 0.3 0.2
v -0.8 1.1 -0.1
v -0.8 1 -0.1
v -0.8 0.6 -0.1
v -0.8 0 -0.1
v -0.9 0 0.6
v -0.9 -0.8 0.6
v -0.9 0 -0.2
v -0.9 -0.8 -0.2
v -1.3 1 0.3
v -1.3 0.8 0.3
v -1.3 -0.4 0.3
v -1.3 1 0.2
v -1.3 0.8 0.2
v -1.3 -0.4 0.2
v -1.4 -0.4 0.3
v -1.4 -0.8 0.3
v -1.4 -0.4 0.2
v -1.4 -0.8 0.2
v -0.3 1.5 0.4
v -0.3 1.5 5.96046e-008
v -0.7 1.5 0.4
v -0.7 1.5 5.96046e-008
v 0.5 1.2 0.3
v 0.5 1.2 0.2
v 0.4 1.2 0.3
v 0.4 1.2 0.2
v 0.3 1.2 0.3
v 0.3 1.2 0.2
v 0.2 1.2 0.3
v 0.2 1.2 0.2
v 0.1 1.2 0.3
v 0.1 1.2 0.2
v 0 1.2 0.3
v 0 1.2 0.2
v -0.2 1.1 0.5
v -0.2 1.1 -0.1
v -0.3 1.1 0.4
v -0.3 1.1 5.96046e-008
v -0.7 1.1 0.4
v -0.7 1.1 5.96046e-008
v -0.8 1.1 0.5
v -0.8 1.1 -0.1
v 0.4 1 0.3
v 0.4 1 0.2
v 0.3 1 0.3
v 0.3 1 0.2
v 0.2 1 0.3
v 0.2 1 0.2
v 0.1 1 0.3
v 0.1 1 0.2
v -1.2 1 0.3
v -1.2 1 0.2
v -1.3 1 0.3
v -1.3 1 0.2
v -0.4 0.8 0.5
v -0.4 0.8 0.4
v -0.6 0.8 0.5
v -0.6 0.8 0.4
v -0.2 0.6 0.5
v -0.2 0.6 -0.1
v -0.3 0.6 0.4
v -0.3 0.6 5.96046e-008
v -0.4 0.6 0.4
v -0.6 0.6 0.4
v -0.7 0.6 0.4
v -0.7 0.6 5.96046e-008
v -0.8 0.6 0.5
v -0.8 0.6 -0.1
v 0.2 0.4 0.3
v 0.2 0.4 0.2
v -0.2 0.4 0.3
v -0.2 0.4 0.2
v -0.8 0.4 0.3
v -0.8 0.4 0.2
v -1.2 0.4 0.3
v -1.2 0.4 0.2
v -0.1 0 0.6
v -0.1 0 -0.2
v -0.2 0 0.5
v -0.2 0 -0.1
v -0.4 0 0.5
v -0.6 0 0.5
v -0.8 0 0.5
v -0.8 0 -0.1
v -0.9 0 0.6
v -0.9 0 -0.2
v -1.1 -0.4 0.3
v -1.1 -0.4 0.2
v -1.2 -0.4 0.3
v -1.2 -0.4 0.2
v -1.3 -0.4 0.3
v -1.3 -0.4 0.2
v -1.4 -0.4 0.3
v -1.4 -0.4 0.2
v -0.2 1 0.5
v -0.2 1 -0.1
v -0.3 1 0.4
v -0.3 1 5.96046e-008
v -0.7 1 0.4
v -0.7 1 5.96046e-008
v -0.8 1 0.5
v -0.8 1 -0.1
v 0.5 0.9 0.3
v 0.5 0.9 0.2
v 0.3 0.9 0.3
v 0.3 0.9 0.2
v 0.2 0.9 0.3
v 0.2 0.9 0.2
v 0 0.9 0.3
v 0 0.9 0.2
v -0.4 0.7 0.5
v -0.4 0.7 0.4
v -0.6 0.7 0.5
v -0.6 0.7 0.4
v 0.2 0.3 0.3
v 0.2 0.3 0.2
v -0.2 0.3 0.3
v -0.2 0.3 0.2
v -0.8 0.3 0.3
v -0.8 0.3 0.2
v -1.2 0.3 0.3
v -1.2 0.3 0.2
v 0.3 -0.4 0.3
v 0.3 -0.4 0.2
v 0.2 -0.4 0.3
v 0.2 -0.4 0.2
v -0.1 -0.8 0.6
v -0.1 -0.8 -0.2
v -0.9 -0.8 0.6
v -0.9 -0.8 -0.2
v -1.1 -0.8 0.3
v -1.1 -0.8 0.2
v -1.4 -0.8 0.3
v -1.4 -0.8 0.2

# faces
f 1/3/1 2/3/1 3/3/1
f 3/3/1 2/3/1 4/3/1
f 5/6/1 6/6/1 7/6/1
f 7/6/1 6/6/1 8/6/1
f 9/1/1 10/1/1 11/1/1
f 11/1/1 10/1/1 12/1/1
f 13/3/1 14/3/1 15/3/1
f 15/3/1 14/3/1 16/3/1
f 13/3/1 15/3/1 17/3/1
f 15/5/1 16/5/1 17/5/1
f 16/3/1 14/3/1 18/3/1
f 17/5/1 16/5/1 18/5/1
f 13/3/1 17/3/1 19/3/1
f 17/3/1 18/3/1 19/3/1
f 18/3/1 14/3/1 20/3/1
f 19/3/1 18/3/1 20/3/1
f 13/3/1 19/3/1 21/3/1
f 19/5/1 20/5/1 21/5/1
f 20/3/1 14/3/1 22/3/1
f 21/5/1 20/5/1 22/5/1
f 13/3/1 21/3/1 23/3/1
f 21/3/1 22/3/1 23/3/1
f 22/3/1 14/3/1 24/3/1
f 23/3/1 22/3/1 24/3/1
f 13/3/1 23/3/1 25/3/1
f 23/5/1 24/5/1 26/5/1
f 25/3/1 23/3/1 26/3/1
f 24/3/1 14/3/1 27/3/1
f 26/5/1 24/5/1 27/5/1
f 27/3/1 14/3/1 28/3/1
f 29/6/1 30/6/1 31/6/1
f 31/6/1 30/6/1 32/6/1
f 33/3/1 34/3/1 35/3/1
f 35/3/1 34/3/1 36/3/1
f 36/3/1 34/3/1 37/3/1
f 37/3/1 34/3/1 38/3/1
f 35/5/1 36/5/1 39/5/1
f 36/3/1 37/3/1 40/3/1
f 39/5/1 36/5/1 40/5/1
f 37/5/1 38/5/1 41/5/1
f 40/3/1 37/3/1 41/3/1
f 41/5/1 38/5/1 42/5/1
f 39/3/1 40/3/1 43/3/1
f 41/3/1 42/3/1 44/3/1
f 39/3/1 43/3/1 45/3/1
f 43/5/1 44/5/1 46/5/1
f 45/3/1 43/3/1 46/3/1
f 44/3/1 42/3/1 47/3/1
f 46/5/1 44/5/1 47/5/1
f 47/3/1 42/3/1 48/3/1
f 49/4/1 50/4/1 55/4/1
f 51/4/1 52/4/1 56/4/1
f 56/4/1 52/4/1 57/4/1
f 53/4/1 54/4/1 58/4/1
f 56/4/1 57/4/1 61/4/1
f 49/4/1 55/4/1 61/4/1
f 57/4/1 58/4/1 61/4/1
f 55/4/1 56/4/1 61/4/1
f 61/4/1 58/4/1 62/4/1
f 62/4/1 58/4/1 63/4/1
f 58/4/1 54/4/1 64/4/1
f 63/4/1 58/4/1 64/4/1
f 59/6/1 60/6/1 65/6/1
f 65/6/1 60/6/1 66/6/1
f 62/4/1 63/4/1 67/4/1
f 65/4/1 66/4/1 70/4/1
f 67/2/1 68/2/1 71/2/1
f 62/4/1 67/4/1 71/4/1
f 71/2/1 68/2/1 72/2/1
f 69/2/1 70/2/1 73/2/1
f 70/4/1 66/4/1 74/4/1
f 73/2/1 70/2/1 74/2/1
f 62/4/1 71/4/1 75/4/1
f 75/4/1 71/4/1 76/4/1
f 75/6/1 76/6/1 77/6/1
f 77/6/1 76/6/1 78/6/1
f 74/4/1 66/4/1 80/4/1
f 80/4/1 66/4/1 81/4/1
f 80/4/1 81/4/1 83/4/1
f 81/4/1 82/4/1 83/4/1
f 79/4/1 80/4/1 83/4/1
f 83/4/1 82/4/1 84/4/1
f 91/4/2 86/4/2 85/4/2
f 92/4/2 88/4/2 87/4/2
f 93/4/2 88/4/2 92/4/2
f 94/4/2 90/4/2 89/4/2
f 97/4/2 93/4/2 92/4/2
f 97/4/2 91/4/2 85/4/2
f 97/4/2 94/4/2 93/4/2
f 97/4/2 92/4/2 91/4/2
f 98/4/2 94/4/2 97/4/2
f 99/4/2 94/4/2 98/4/2
f 100/4/2 90/4/2 94/4/2
f 100/4/2 94/4/2 99/4/2
f 101/6/2 96/6/2 95/6/2
f 102/6/2 96/6/2 101/6/2
f 103/4/2 99/4/2 98/4/2
f 106/4/2 102/4/2 101/4/2
f 107/2/2 104/2/2 103/2/2
f 107/4/2 103/4/2 98/4/2
f 108/2/2 104/2/2 107/2/2
f 109/2/2 106/2/2 105/2/2
f 110/4/2 102/4/2 106/4/2
f 110/2/2 106/2/2 109/2/2
f 111/4/2 107/4/2 98/4/2
f 112/4/2 107/4/2 111/4/2
f 113/6/2 112/6/2 111/6/2
f 114/6/2 112/6/2 113/6/2
f 116/4/2 102/4/2 110/4/2
f 117/4/2 102/4/2 116/4/2
f 119/4/2 117/4/2 116/4/2
f 119/4/2 118/4/2 117/4/2
f 119/4/2 116/4/2 115/4/2
f 120/4/2 118/4/2 119/4/2
f 123/6/2 122/6/2 121/6/2
f 124/6/2 122/6/2 123/6/2
f 127/3/2 126/3/2 125/3/2
f 128/3/2 126/3/2 127/3/2
f 131/6/2 130/6/2 129/6/2
f 132/6/2 130/6/2 131/6/2
f 135/3/2 134/3/2 133/3/2
f 136/3/2 134/3/2 135/3/2
f 139/3/2 138/3/2 137/3/2
f 140/3/2 138/3/2 139/3/2
f 141/4/3 142/4/3 143/4/3
f 143/4/3 142/4/3 144/4/3
f 145/4/3 146/4/3 150/4/3
f 150/4/3 146/4/3 151/4/3
f 147/4/3 148/4/3 152/4/3
f 148/6/3 149/6/3 153/6/3
f 152/4/3 148/4/3 153/4/3
f 153/6/3 149/6/3 154/6/3
f 155/4/3 156/4/3 157/4/3
f 157/4/3 156/4/3 158/4/3
f 159/3/3 160/3/3 161/3/3
f 161/3/3 160/3/3 162/3/3
f 165/3/3 166/3/3 167/3/3
f 167/3/3 166/3/3 168/3/3
f 165/3/3 167/3/3 169/3/3
f 168/3/3 166/3/3 170/3/3
f 163/6/3 164/6/3 171/6/3
f 171/6/3 164/6/3 172/6/3
f 169/3/3 170/3/3 173/3/3
f 165/3/3 169/3/3 173/3/3
f 170/3/3 166/3/3 174/3/3
f 173/3/3 170/3/3 174/3/3
f 177/3/3 178/3/3 181/3/3
f 178/5/3 179/5/3 181/5/3
f 179/3/3 180/3/3 182/3/3
f 181/5/3 179/5/3 182/5/3
f 175/6/3 176/6/3 183/6/3
f 183/6/3 176/6/3 184/6/3
f 177/3/3 181/3/3 185/3/3
f 181/3/3 182/3/3 185/3/3
f 182/3/3 180/3/3 186/3/3
f 185/3/3 182/3/3 186/3/3
f 187/1/3 188/1/3 189/1/3
f 189/1/3 188/1/3 190/1/3
f 191/4/3 192/4/3 193/4/3
f 193/4/3 192/4/3 194/4/3
f 195/6/3 196/6/3 200/6/3
f 196/4/3 197/4/3 201/4/3
f 200/6/3 196/6/3 201/6/3
f 201/4/3 197/4/3 202/4/3
f 198/4/3 199/4/3 203/4/3
f 203/4/3 199/4/3 204/4/3
f 207/4/4 206/4/4 205/4/4
f 208/4/4 206/4/4 207/4/4
f 216/4/4 210/4/4 209/4/4
f 217/4/4 210/4/4 216/4/4
f 218/4/4 212/4/4 211/4/4
f 219/4/4 212/4/4 218/4/4
f 220/4/4 214/4/4 213/4/4
f 221/6/4 215/6/4 214/6/4
f 221/4/4 214/4/4 220/4/4
f 222/6/4 215/6/4 221/6/4
f 225/4/4 224/4/4 223/4/4
f 226/4/4 224/4/4 225/4/4
f 229/1/4 228/1/4 227/1/4
f 230/1/4 228/1/4 229/1/4
f 237/3/4 234/3/4 233/3/4
f 237/5/4 235/5/4 234/5/4
f 238/3/4 236/3/4 235/3/4
f 238/5/4 235/5/4 237/5/4
f 239/6/4 232/6/4 231/6/4
f 240/6/4 232/6/4 239/6/4
f 241/3/4 237/3/4 233/3/4
f 241/3/4 238/3/4 237/3/4
f 242/3/4 236/3/4 238/3/4
f 242/3/4 238/3/4 241/3/4
f 247/3/4 246/3/4 245/3/4
f 248/3/4 246/3/4 247/3/4
f 249/3/4 247/3/4 245/3/4
f 250/3/4 246/3/4 248/3/4
f 251/6/4 244/6/4 243/6/4
f 252/6/4 244/6/4 251/6/4
f 253/3/4 250/3/4 249/3/4
f 253/3/4 249/3/4 245/3/4
f 254/3/4 246/3/4 250/3/4
f 254/3/4 250/3/4 253/3/4
f 257/3/4 256/3/4 255/3/4
f 258/3/4 256/3/4 257/3/4
f 262/6/4 260/6/4 259/6/4
f 263/4/4 261/4/4 260/4/4
f 263/6/4 260/6/4 262/6/4
f 264/4/4 261/4/4 263/4/4
f 267/4/4 266/4/4 265/4/4
f 268/4/4 266/4/4 267/4/4
f 269/6/5 270/6/5 271/6/5
f 271/6/5 270/6/5 272/6/5
f 273/4/5 274/4/5 275/4/5
f 275/4/5 274/4/5 276/4/5
f 277/4/5 278/4/5 279/4/5
f 279/4/5 278/4/5 280/4/5
f 281/4/5 282/4/5 283/4/5
f 283/4/5 282/4/5 284/4/5
f 285/6/5 286/6/5 287/6/5
f 287/6/5 286/6/5 288/6/5
f 285/6/5 287/6/5 289/6/5
f 288/6/5 286/6/5 290/6/5
f 285/6/5 289/6/5 291/6/5
f 289/6/5 290/6/5 291/6/5
f 290/6/5 286/6/5 292/6/5
f 291/6/5 290/6/5 292/6/5
f 293/4/5 294/4/5 295/4/5
f 295/4/5 294/4/5 296/4/5
f 297/4/5 298/4/5 299/4/5
f 299/4/5 298/4/5 300/4/5
f 301/6/5 302/6/5 303/6/5
f 303/6/5 302/6/5 304/6/5
f 305/1/5 306/1/5 307/1/5
f 307/1/5 306/1/5 308/1/5
f 309/3/5 310/3/5 311/3/5
f 311/3/5 310/3/5 312/3/5
f 309/3/5 311/3/5 313/3/5
f 309/3/5 313/3/5 314/3/5
f 309/3/5 314/3/5 315/3/5
f 312/3/5 310/3/5 316/3/5
f 309/3/5 315/3/5 317/3/5
f 315/3/5 316/3/5 317/3/5
f 316/3/5 310/3/5 318/3/5
f 317/3/5 316/3/5 318/3/5
f 319/2/5 320/2/5 321/2/5
f 321/2/5 320/2/5 322/2/5
f 323/2/5 324/2/5 325/2/5
f 325/2/5 324/2/5 326/2/5
f 327/3/5 328/3/5 329/3/5
f 329/3/5 328/3/5 330/3/5
f 327/3/5 329/3/5 331/3/5
f 327/3/5 331/3/5 332/3/5
f 327/3/5 332/3/5 333/3/5
f 330/3/5 328/3/5 334/3/5
f 327/3/5 333/3/5 335/3/5
f 333/3/5 334/3/5 335/3/5
f 334/3/5 328/3/5 336/3/5
f 335/3/5 334/3/5 336/3/5
f 337/4/5 338/4/5 339/4/5
f 339/4/5 338/4/5 340/4/5
f 341/4/5 342/4/5 343/4/5
f 343/4/5 342/4/5 344/4/5
f 347/6/6 346/6/6 345/6/6
f 348/6/6 346/6/6 347/6/6
f 349/6/6 347/6/6 345/6/6
f 350/6/6 346/6/6 348/6/6
f 351/6/6 349/6/6 345/6/6
f 351/6/6 350/6/6 349/6/6
f 352/6/6 346/6/6 350/6/6
f 352/6/6 350/6/6 351/6/6
f 355/4/6 354/4/6 353/4/6
f 356/4/6 354/4/6 355/4/6
f 359/4/6 358/4/6 357/4/6
f 360/4/6 358/4/6 359/4/6
f 363/1/6 362/1/6 361/1/6
f 364/1/6 362/1/6 363/1/6
f 367/2/6 366/2/6 365/2/6
f 368/2/6 366/2/6 367/2/6
f 371/2/6 370/2/6 369/2/6
f 372/2/6 370/2/6 371/2/6
f 375/6/6 374/6/6 373/6/6
f 376/6/6 374/6/6 375/6/6
f 379/3/6 378/3/6 377/3/6
f 380/3/6 378/3/6 379/3/6
f 383/4/6 382/4/6 381/4/6
f 384/4/6 382/4/6 383/4/6
