%YAML 1.1
%TAG !u! tag:unity3d.com,2011:
--- !u!114 &11400000
MonoBehaviour:
  m_ObjectHideFlags: 0
  m_CorrespondingSourceObject: {fileID: 0}
  m_PrefabInstance: {fileID: 0}
  m_PrefabAsset: {fileID: 0}
  m_GameObject: {fileID: 0}
  m_Enabled: 1
  m_EditorHideFlags: 0
  m_Script: {fileID: 11500000, guid: 2c103abec029ac4459add71ca8ea4711, type: 3}
  m_Name: JumpBullet
  m_EditorClassIdentifier: 
  bulletPrefab: {fileID: 1964944636887059070, guid: babaad6c791552a49897f33c3c5e1978,
    type: 3}
  rechargeTime: 2
  shootSound: {fileID: 8300000, guid: e2fd8208602b3ed42adc6bc3c29713bd, type: 3}
  fireEffect: {fileID: 3637992052452591009, guid: 87d9ffac783814a4caa7c2f89072567c,
    type: 3}
