%YAML 1.1
%TAG !u! tag:unity3d.com,2011:
--- !u!114 &11400000
MonoBehaviour:
  m_ObjectHideFlags: 0
  m_CorrespondingSourceObject: {fileID: 0}
  m_PrefabInstance: {fileID: 0}
  m_PrefabAsset: {fileID: 0}
  m_GameObject: {fileID: 0}
  m_Enabled: 1
  m_EditorHideFlags: 0
  m_Script: {fileID: 11500000, guid: 2c103abec029ac4459add71ca8ea4711, type: 3}
  m_Name: RailgunLaser
  m_EditorClassIdentifier: 
  bulletPrefab: {fileID: 5977547493045639837, guid: db63deb5699bfe44891b4a8953017bc7,
    type: 3}
  rechargeTime: 10
  shootSound: {fileID: 8300000, guid: ca2a76f83f523a645b20b7b5a7570658, type: 3}
  fireEffect: {fileID: 0}
